%YAML 1.1
%TAG !u! tag:unity3d.com,2011:
--- !u!1045 &1
EditorBuildSettings:
  m_ObjectHideFlags: 0
  serializedVersion: 2
  m_Scenes:
  - enabled: 1
    path: Assets/PEC1/Scenes/Pantalla Inicial.unity
    guid: 2cda990e2423bbf4892e6590ba056729
  - enabled: 1
    path: Assets/PEC1/Scenes/Partida Nueva.unity
    guid: 9133c04ee28e8854b99c83ca2e74e47b
  - enabled: 1
    path: Assets/PEC1/Scenes/Fin Juego.unity
    guid: 115da30aadc122a4ca69ee1e18151344
  m_configObjects: {}
